<?xml version="1.0" encoding="utf-8"?>
<!-- Generator: Adobe Illustrator 22.0.0, SVG Export Plug-In . SVG Version: 6.00 Build 0)  -->
<svg version="1.1" id="Layer_1" xmlns="http://www.w3.org/2000/svg" xmlns:xlink="http://www.w3.org/1999/xlink" x="0px" y="0px"
	 viewBox="0 0 30 30" style="enable-background:new 0 0 30 30;" xml:space="preserve">
<style type="text/css">
	.st0{fill:#001B3E;}
</style>
<g>
	<path class="st0" d="M24.1,8.2C24,8,23.8,8,23.6,8.1c-0.2,0.1-0.2,0.4,0,0.5c1.8,2,2.7,4.7,2.7,7.4c0,6.2-5.1,11.3-11.3,11.3
		s-11.3-5-11.3-11.2c0-3.5,1.6-6.8,4.4-8.9c0-0.1,0.1-0.2,0.1-0.4V4.2h2.6v1.9c0,0.2,0.2,0.4,0.4,0.4h7.7c0.2,0,0.4-0.2,0.4-0.4V4.2
		h2.6v18.9H8.2V10.5h1.1v11.2c0,0.2,0.2,0.4,0.4,0.4h10.6c0.2,0,0.4-0.2,0.4-0.4V5.8c0-0.2-0.2-0.4-0.4-0.4c-0.2,0-0.4,0.2-0.4,0.4
		v15.5h-9.8V10.1c0-0.2-0.2-0.4-0.4-0.4H7.8c-0.2,0-0.4,0.2-0.4,0.4v13.5c0,0.2,0.2,0.4,0.4,0.4h14.4c0.2,0,0.4-0.2,0.4-0.4V3.9
		c0-0.2-0.2-0.4-0.4-0.4h-3.3h-1.2V2.3c0-0.2-0.2-0.4-0.4-0.4h-4.6c-0.2,0-0.4,0.2-0.4,0.4v1.2h-1.2H7.8c-0.2,0-0.4,0.2-0.4,0.4v2.8
		c-1.3,1.1-2.5,2.5-3.2,4c-0.8,1.7-1.3,3.5-1.3,5.4c0,3.2,1.3,6.3,3.5,8.5c2.3,2.3,5.3,3.5,8.5,3.5s6.3-1.3,8.5-3.5
		c2.3-2.3,3.5-5.3,3.5-8.5C27.1,13.2,26,10.4,24.1,8.2z M13.1,3.9V2.6h3.8v1.2v0.5h-3.8C13.1,4.3,13.1,3.9,13.1,3.9z M11.5,4.2h0.8
		v0.5c0,0.2,0.2,0.4,0.4,0.4h4.6c0.2,0,0.4-0.2,0.4-0.4V4.2h0.8v1.5h-6.9L11.5,4.2L11.5,4.2z"/>
	<path class="st0" d="M11.6,9.8h6.9c0.2,0,0.4-0.2,0.4-0.4S18.7,9,18.5,9h-6.9c-0.2,0-0.4,0.2-0.4,0.4C11.2,9.6,11.4,9.8,11.6,9.8z"
		/>
	<path class="st0" d="M11.6,12.1h6.9c0.2,0,0.4-0.2,0.4-0.4s-0.2-0.4-0.4-0.4h-6.9c-0.2,0-0.4,0.2-0.4,0.4
		C11.2,11.9,11.4,12.1,11.6,12.1z"/>
	<path class="st0" d="M11.6,14.4h6.9c0.2,0,0.4-0.2,0.4-0.4s-0.2-0.4-0.4-0.4h-6.9c-0.2,0-0.4,0.2-0.4,0.4
		C11.2,14.2,11.4,14.4,11.6,14.4z"/>
	<path class="st0" d="M11.6,16.6h6.9c0.2,0,0.4-0.2,0.4-0.4s-0.2-0.4-0.4-0.4h-6.9c-0.2,0-0.4,0.2-0.4,0.4S11.4,16.6,11.6,16.6z"/>
</g>
</svg>
